{
	"process_id" : 26169,
	"version" : "2019.4.8f1",
	"app_path" : "/Applications/Unity/Hub/Editor/2019.4.8f1/Unity.app",
	"app_contents_path" : "/Applications/Unity/Hub/Editor/2019.4.8f1/Unity.app/Contents"
}